
{ "mockData": 
    [
        [
            "Role Category",
            "Role",
            "Yes! I've played this role in the last 2 years",
            "My Mastery Level",
            "This is a role I want to play going forward!"
        ],
        [
            "Business Roles",
            "Capability Lead",
            null,
            null,
            null
        ],
        [
            null,
            "Client Partner",
            null,
            null,
            null
        ],
        [
            null,
            "Market Lead",
            null,
            null,
            null
        ],
        [
            null,
            "People Leader",
            null,
            null,
            null
        ],
        [
            "Functional Roles",
            "Agilist",
            "yes",
            "Novice",
            "no"
        ],
        [
            null,
            "Business Analyst",
            null,
            null,
            null
        ],
        [
            null,
            "Business Architect",
            null,
            null,
            null
        ],
        [
            null,
            "Change Manager",
            null,
            null,
            null
        ],
        [
            null,
            "Customer Strategist",
            null,
            null,
            null
        ],
        [
            null,
            "Digital Strategist",
            null,
            null,
            null
        ],
        [
            null,
            "Experience Designer",
            null,
            null,
            null
        ],
        [
            null,
            "Experience Strategist",
            null,
            null,
            null
        ],
        [
            null,
            "Organizational Strategist",
            null,
            null,
            null
        ],
        [
            null,
            "Portfolio Manager",
            null,
            null,
            null
        ],
        [
            null,
            "Process Optimization Lead",
            null,
            null,
            null
        ],
        [
            null,
            "Product Manager",
            null,
            null,
            null
        ],
        [
            null,
            "Product Owner",
            null,
            null,
            null
        ],
        [
            null,
            "Product Strategist",
            null,
            null,
            null
        ],
        [
            null,
            "Program Manager",
            null,
            null,
            null
        ],
        [
            null,
            "Project Manager",
            null,
            null,
            null
        ],
        [
            null,
            "Scrum Master",
            null,
            null,
            null
        ],
        [
            null,
            "Talent Strategist",
            null,
            null,
            null
        ],
        [
            null,
            "Visual Designer",
            null,
            null,
            null
        ],
        [
            "Technical Roles",
            "Cloud Engineer",
            null,
            null,
            null
        ],
        [
            null,
            "Data Analyst",
            null,
            null,
            null
        ],
        [
            null,
            "Data Engineer",
            null,
            null,
            null
        ],
        [
            null,
            "Data Scientist",
            null,
            null,
            null
        ],
        [
            null,
            "Data Strategist",
            null,
            null,
            null
        ],
        [
            null,
            "Development Lead",
            null,
            null,
            null
        ],
        [
            null,
            "DevOps Engineer",
            null,
            null,
            null
        ],
        [
            null,
            "Enterprise Architect",
            null,
            null,
            null
        ],
        [
            null,
            "Quality Engineer",
            "yes",
            "Proficient",
            "yes"
        ],
        [
            null,
            "Security Engineer",
            null,
            null,
            null
        ],
        [
            null,
            "SF Platform SME",
            null,
            null,
            null
        ],
        [
            null,
            "Software Engineer",
            "yes",
            "Proficient",
            "yes"
        ],
        [
            null,
            "Solution Owner",
            null,
            null,
            null
        ],
        [
            "Pursuit & Engagement Roles",
            "Accountable Exec",
            null,
            null,
            null
        ],
        [
            null,
            "Delivery Solution Lead",
            null,
            null,
            null
        ],
        [
            null,
            "Engagement Lead",
            null,
            null,
            null
        ],
        [
            null,
            "Pursuit Lead",
            null,
            null,
            null
        ],
        [
            null,
            "Relationship Lead",
            null,
            null,
            null
        ],
        [
            null,
            "Sales Solution Lead",
            null,
            null,
            null
        ]
    ]
};